{
    "message": "获取数据成功",
    "data": {
        "current_page": 1,
        "data": [
            {
                "id": 126,
                "name": "test_h",
                "permissions": "alarm_statistics,alarm_examine,alarm_distr,monitoring,client_policy",
                "type": "",
                "created_at": "2018-08-06 17:08:28",
                "updated_at": "2018-08-07 13:56:15"
            },
            {
                "id": 124,
                "name": "ly",
                "permissions": "alarm_statistics,alarm_examine,alarm_distr,monitoring,device_list,device,client_policy,file_identification,policy,setting_user,setting_upgrade,setting_tools,log,setting",
                "type": "",
                "created_at": "2018-08-06 10:09:44",
                "updated_at": "2018-08-06 10:09:44"
            },
            {
                "id": 123,
                "name": "luy",
                "permissions": "device_list,device,client_policy,file_identification,policy,setting_user,setting_upgrade",
                "type": "",
                "created_at": "2018-08-03 17:21:08",
                "updated_at": "2018-08-03 17:26:50"
            },
            {
                "id": 63,
                "name": "超级管理员d",
                "permissions": "vis,alarm_statistics,alarm_distr,device_list,device,client_policy,file_identification,policy,setting_user,setting_upgrade,setting_tools,log,setting",
                "type": "",
                "created_at": "2018-07-13 18:33:35",
                "updated_at": "2018-08-03 15:07:40"
            },
            {
                "id": 62,
                "name": "testnew",
                "permissions": "vis,alarm_statistics,alarm_distr",
                "type": "",
                "created_at": "2018-07-12 17:35:47",
                "updated_at": "2018-07-25 18:39:27"
            },
            {
                "id": 61,
                "name": "tewt",
                "permissions": "vis,client_policy,file_identification,policy,setting_user,setting_upgrade,setting_tools,log,setting",
                "type": "",
                "created_at": "2018-07-03 14:21:03",
                "updated_at": "2018-07-30 20:42:34"
            },
            {
                "id": 60,
                "name": "日志管理员测试",
                "permissions": "setting_upgrade,log",
                "type": "",
                "created_at": "2018-06-28 14:04:17",
                "updated_at": "2018-07-09 10:15:33"
            },
            {
                "id": 59,
                "name": "liukelin",
                "permissions": "vis,alarm_statistics,alarm_examine,alarm_distr,monitoring,device,logreport_logreport,logreport,client_policy,file_identification,policy,setting_user,setting_upgrade,setting",
                "type": "",
                "created_at": "2018-06-13 19:20:25",
                "updated_at": "2018-06-13 19:20:25"
            },
            {
                "id": 58,
                "name": "testx2",
                "permissions": "vis,monitoring,alarm_statistics,alarm_examine,alarm_distr,logreport,logreport_logreport,policy,client_policy,setting,setting_user,setting_upgrade,device,earth",
                "type": "",
                "created_at": "2018-05-23 13:17:08",
                "updated_at": "2018-05-28 10:18:21"
            },
            {
                "id": 56,
                "name": "unit",
                "permissions": "vis,alarm_distr,client_policy,file_identification,policy,setting_user,setting_upgrade,setting_tools,log,setting",
                "type": "",
                "created_at": "2018-05-21 11:25:23",
                "updated_at": "2018-07-27 16:02:27"
            },
            {
                "id": 55,
                "name": "ld",
                "permissions": "vis,alarm_examine,alarm_distr",
                "type": "",
                "created_at": "2018-05-14 17:50:34",
                "updated_at": "2018-07-16 19:00:53"
            },
            {
                "id": 54,
                "name": "策略管理员",
                "permissions": "client_policy,file_identification,policy,setting_upgrade",
                "type": "",
                "created_at": "2018-05-09 16:27:36",
                "updated_at": "2018-06-12 13:34:20"
            },
            {
                "id": 53,
                "name": "wmj",
                "permissions": "vis,alarm_statistics,alarm_examine,alarm_distr,monitoring,device_list,device,logreport_logreport,logreport,client_policy,file_identification,policy,setting_user,setting_upgrade,log,setting",
                "type": "",
                "created_at": "2018-05-04 10:21:36",
                "updated_at": "2018-07-16 10:47:16"
            },
            {
                "id": 52,
                "name": "wwh",
                "permissions": "vis,monitoring,alarm_statistics,alarm_examine,alarm_distr,device,logreport,logreport_logreport,policy,client_policy,setting,setting_user,setting_upgrade",
                "type": "",
                "created_at": "2018-04-27 16:26:09",
                "updated_at": "2018-04-27 16:26:09"
            },
            {
                "id": 48,
                "name": "测试用户",
                "permissions": "vis,alarm_statistics,alarm_examine,alarm_distr,monitoring,device_list,device,client_policy,file_identification,policy,setting_user,setting_upgrade,setting_tools,log,setting",
                "type": "",
                "created_at": "2018-04-26 17:40:54",
                "updated_at": "2018-08-01 15:02:30"
            }
        ],
        "first_page_url": "http://settinglog.vps.next.webfe.tech/roles/list?page=1",
        "from": 1,
        "last_page": 2,
        "last_page_url": "http://settinglog.vps.next.webfe.tech/roles/list?page=2",
        "next_page_url": "http://settinglog.vps.next.webfe.tech/roles/list?page=2",
        "path": "http://settinglog.vps.next.webfe.tech/roles/list",
        "per_page": 15,
        "prev_page_url": null,
        "to": 15,
        "total": 21
    },
    "errorCode": 0
}
